\BOOKMARK [1][-]{section.1}{Model Lieba-Linigera \(LL\)}{}% 1
\BOOKMARK [2][-]{subsection.1.1}{Wprowdzenie}{section.1}% 2
\BOOKMARK [2][-]{subsection.1.2}{Stany YRAST}{section.1}% 3
\BOOKMARK [2][-]{subsection.1.3}{Korelacje w stanach YRAST}{section.1}% 4
\BOOKMARK [1][-]{section.2}{Model Lieba-Linigera w uk\233adzie obracajacym sie \(rLL\)}{}% 5
\BOOKMARK [2][-]{subsection.2.1}{Komutacja operator\363w}{section.2}% 6
\BOOKMARK [2][-]{subsection.2.2}{Dalsze}{section.2}% 7
\BOOKMARK [2][-]{subsection.2.3}{Jak dobrac P}{section.2}% 8
\BOOKMARK [1][-]{section.3}{Wyprowadzenie modelu Bose-Hubbarda w obracajacym sie uk\233adzie odniesienia \(rBH\)}{}% 9
\BOOKMARK [1][-]{section.4}{Model Bose-Hubbarda w uk\233adzie o niezerowym pedzie \(rBH\)}{}% 10
\BOOKMARK [1][-]{section.5}{Obliczenia}{}% 11
\BOOKMARK [1][-]{section.6}{To do}{}% 12
