\relax 
\providecommand\hyper@newdestlabel[2]{}
\providecommand\HyperFirstAtBeginDocument{\AtBeginDocument}
\HyperFirstAtBeginDocument{\ifx\hyper@anchor\@undefined
\global\let\oldcontentsline\contentsline
\gdef\contentsline#1#2#3#4{\oldcontentsline{#1}{#2}{#3}}
\global\let\oldnewlabel\newlabel
\gdef\newlabel#1#2{\newlabelxx{#1}#2}
\gdef\newlabelxx#1#2#3#4#5#6{\oldnewlabel{#1}{{#2}{#3}}}
\AtEndDocument{\ifx\hyper@anchor\@undefined
\let\contentsline\oldcontentsline
\let\newlabel\oldnewlabel
\fi}
\fi}
\global\let\hyper@last\relax 
\gdef\HyperFirstAtBeginDocument#1{#1}
\providecommand\HyField@AuxAddToFields[1]{}
\providecommand\HyField@AuxAddToCoFields[2]{}
\@writefile{toc}{\contentsline {section}{\numberline {1}Model Lieba-Linigera (LL)}{2}{section.1}}
\@writefile{toc}{\contentsline {subsection}{\numberline {1.1}Wprowdzenie}{2}{subsection.1.1}}
\@writefile{toc}{\contentsline {subsection}{\numberline {1.2}Stany YRAST}{2}{subsection.1.2}}
\@writefile{toc}{\contentsline {subsection}{\numberline {1.3}Korelacje w stanach YRAST}{2}{subsection.1.3}}
\@writefile{toc}{\contentsline {section}{\numberline {2}Model Lieba-Linigera w uk\IeC {\l }adzie obracaj\IeC {\k a}cym si\IeC {\k e} (rLL)}{2}{section.2}}
\@writefile{toc}{\contentsline {subsection}{\numberline {2.1}Komutacja operator\IeC {\'o}w}{2}{subsection.2.1}}
\@writefile{toc}{\contentsline {subsection}{\numberline {2.2}Dalsze}{3}{subsection.2.2}}
\@writefile{toc}{\contentsline {subsection}{\numberline {2.3}Jak dobra\IeC {\'c} P}{3}{subsection.2.3}}
\@writefile{toc}{\contentsline {section}{\numberline {3}Wyprowadzenie modelu Bose-Hubbarda w obracaj\IeC {\k a}cym si\IeC {\k e} uk\IeC {\l }adzie odniesienia (rBH)}{3}{section.3}}
\@writefile{toc}{\contentsline {section}{\numberline {4}Model Bose-Hubbarda w uk\IeC {\l }adzie o niezerowym p\IeC {\k e}dzie (rBH)}{4}{section.4}}
\@writefile{toc}{\contentsline {section}{\numberline {5}Obliczenia}{5}{section.5}}
\@writefile{toc}{\contentsline {section}{\numberline {6}To do}{5}{section.6}}
